{
  "errno": 0,
  "errmsg": "",
  "data": {
    "count": 12,
    "totalPages": 2,
    "pagesize": 10,
    "currentPage": 1,
    "data": [
      {
        "id": 145,
        "author": {
          "id": 15,
          "login": "admin",
          "nicename": "至优管理员",
          "email": "baisheng@outlook.com",
          "status": 1,
          "metas": [
            {
              "meta_key": "picker_S11SeYT2W_capabilities",
              "meta_value": "{\"role\": \"administrator\", \"type\": \"team\"}",
              "user_id": 15,
              "meta_id": 4
            },
            {
              "meta_key": "org_1_capabilities",
              "meta_value": "{\"role\": \"Adminstrator\"}",
              "user_id": 15,
              "meta_id": 5
            },
            {
              "meta_key": "avatar",
              "meta_value": "\"23\"",
              "user_id": 15,
              "meta_id": 23
            },
            {
              "meta_key": "picker_S11SeYT2W_liked_posts",
              "meta_value": "[]",
              "user_id": 15,
              "meta_id": 114
            }
          ]
        },
        "status": "auto-draft",
        "type": "post_format",
        "title": "童年",
        "name": "tong-nian",
        "content": "欢迎孩子们和家长们来到自习室基础计算的课堂。基础计算提倡自主学习，让孩子每天“迈小步，不停步，天天有进步”。家长在孩子学习中特别是家庭学习时可能会有诸多的问题。因此我们特意开辟了这个栏目，每天都在收集第一线的家长问题，做出最权威的解释。希望能对您和孩子有所帮助。",
        "sort": -3,
        "excerpt": null,
        "date": 1513847843952,
        "modified": 1515412691405,
        "parent": 0,
        "meta": {
          "_thumbnail_id": 245,
          "_liked": [
            {
              "id": "55",
              "ip": "613764122"
            }
          ]
        },
        "items": [
          {
            "id": "231",
            "status": "approved"
          },
          {
            "id": "227",
            "status": "approved"
          },
          {
            "id": "225",
            "status": "approved"
          },
          {
            "id": "212",
            "status": "approved"
          },
          {
            "id": "210",
            "status": "approved"
          },
          {
            "id": "208",
            "status": "approved"
          },
          {
            "id": "206",
            "status": "approved"
          },
          {
            "id": "204",
            "status": "approved"
          },
          {
            "id": "201",
            "status": "approved"
          },
          {
            "id": "179",
            "status": "approved"
          },
          {
            "id": "177",
            "status": "approved"
          },
          {
            "id": "176",
            "status": "approved"
          },
          {
            "id": "174",
            "status": "approved"
          },
          {
            "id": "173",
            "status": "approved"
          },
          {
            "id": "171",
            "status": "approved"
          },
          {
            "id": "170",
            "status": "approved"
          },
          {
            "id": "168",
            "status": "approved"
          },
          {
            "id": "165",
            "status": "approved"
          },
          {
            "id": "149",
            "status": "approved"
          },
          {
            "id": "147",
            "status": "approved"
          }
        ],
        "url": "",
        "like_count": 1,
        "replies_count": 1,
        "featured_image": "https://media.alearning.com.cn/upload_7a0aa79eb616378e4618d008eec87657.jpg"
      },
      {
        "id": 130,
        "author": {
          "id": 15,
          "login": "admin",
          "nicename": "至优管理员",
          "email": "baisheng@outlook.com",
          "status": 1,
          "metas": [
            {
              "meta_key": "picker_S11SeYT2W_capabilities",
              "meta_value": "{\"role\": \"administrator\", \"type\": \"team\"}",
              "user_id": 15,
              "meta_id": 4
            },
            {
              "meta_key": "org_1_capabilities",
              "meta_value": "{\"role\": \"Adminstrator\"}",
              "user_id": 15,
              "meta_id": 5
            },
            {
              "meta_key": "avatar",
              "meta_value": "\"23\"",
              "user_id": 15,
              "meta_id": 23
            },
            {
              "meta_key": "picker_S11SeYT2W_liked_posts",
              "meta_value": "[]",
              "user_id": 15,
              "meta_id": 114
            }
          ]
        },
        "status": "auto-draft",
        "type": "post_format",
        "title": "跑步",
        "name": "",
        "content": "欢迎孩子们和家长们来到自习室培优数学的课堂。自习室的培优数学是个性化学习，是一对一教学，是翻转课堂。 是集各种教学优势于一体的最先进的教学模式。然后新模式下，家长会有诸多的问题想和我们沟通。我们特意开辟了这个栏目，每天都在收集第一线的家长问题，做出最权威的解释。希望能对您和孩子有所帮助。",
        "sort": -2,
        "excerpt": null,
        "date": 1513847837612,
        "modified": 1515413152723,
        "parent": 0,
        "meta": {
          "_thumbnail_id": 246,
          "_liked": [
            {
              "id": "55",
              "ip": "613764122"
            }
          ]
        },
        "items": [
          {
            "id": "196",
            "status": "approved"
          },
          {
            "id": "188",
            "status": "approved"
          },
          {
            "id": "162",
            "status": "trash"
          },
          {
            "id": "157",
            "status": "approved"
          },
          {
            "id": "155",
            "status": "trash"
          },
          {
            "id": "139",
            "status": "approved"
          },
          {
            "id": "137",
            "status": "approved"
          },
          {
            "id": "134",
            "status": "approved"
          },
          {
            "id": "132",
            "status": "approved"
          },
          {
            "id": "192",
            "status": "approved"
          },
          {
            "id": "160",
            "status": "approved"
          }
        ],
        "url": "",
        "like_count": 1,
        "replies_count": 1,
        "featured_image": "https://media.alearning.com.cn/upload_4197d8b2aee1d2093e787da07f220481.jpg"
      },
      {
        "id": 108,
        "author": {
          "id": 190,
          "login": "zanmn",
          "nicename": "詹梦妮",
          "email": null,
          "status": 1,
          "metas": [
            {
              "meta_key": "picker_S11SeYT2W_capabilities",
              "meta_value": "{\"role\": \"author\", \"type\": \"team\"}",
              "user_id": 190,
              "meta_id": 399
            },
            {
              "meta_key": "avatar",
              "meta_value": "43",
              "user_id": 190,
              "meta_id": 403
            },
            {
              "meta_key": "resume",
              "meta_value": "{\"summary\": \"毕业于汉语言文学专业，带过两届拼音班。热爱教育工作，擅长与学生沟通，具有亲和力。\", \"highlights\": [\"性格开朗\", \"思维活跃\"]}",
              "user_id": 190,
              "meta_id": 540
            }
          ]
        },
        "status": "publish",
        "type": "post_format",
        "title": "拼音学习常见问题集锦",
        "name": "",
        "content": "拼音班的家长，你们好。 欢迎来到【自习室】拼音课程。 在我们的课程上，不仅仅学习到拼音知识，掌握朗读，书写的技巧和与拼音相关的各种题形；更重要的是我们注重培养孩子的独立学习的能力，和养成良好的学习习惯，做好幼小衔接。关于孩子在学习拼音的过程中会遇到什么样的问题？ 有哪些常见错误？ 在家如何安排孩子的复习和预习时间等？ 我们在这里都一一做出了解答。\n",
        "sort": -1,
        "excerpt": null,
        "date": 1513694510618,
        "modified": 1514882440993,
        "parent": 0,
        "meta": {
          "_thumbnail_id": 128,
          "_liked": [
            {
              "id": "59",
              "ip": "3748172050"
            },
            {
              "id": "229",
              "ip": "2003287783"
            },
            {
              "id": "55",
              "ip": "613764122"
            }
          ]
        },
        "items": [
          {
            "id": "124",
            "status": "approved"
          },
          {
            "id": "122",
            "status": "approved"
          },
          {
            "id": "120",
            "status": "approved"
          },
          {
            "id": "118",
            "status": "approved"
          },
          {
            "id": "116",
            "status": "approved"
          },
          {
            "id": "114",
            "status": "approved"
          },
          {
            "id": "112",
            "status": "approved"
          },
          {
            "id": "110",
            "status": "approved"
          }
        ],
        "url": "",
        "like_count": 3,
        "replies_count": 2,
        "featured_image": "https://media.alearning.com.cn/upload_cc30d5a386ed827b4e61c50fefee61c0.jpg"
      },
      {
        "id": 1,
        "author": {
          "id": 23,
          "login": "yeqing",
          "nicename": "叶青",
          "email": "yeqig@zhiyou.com",
          "status": 1,
          "metas": [
            {
              "meta_key": "picker_S11SeYT2W_capabilities",
              "meta_value": "{\"role\": \"author\", \"type\": \"team\"}",
              "user_id": 23,
              "meta_id": 17
            },
            {
              "meta_key": "resume",
              "meta_value": "{\"summary\": \"湖南师范大学学前教育专业，英国诺森比亚大学应用语言专业，国家二级心理咨询师。曾任上海昂立国际教育研发总监，领导建立了昂立国际教育3-15岁英语的课程体系并完成了相应教材的研发。17年专注幼少儿培训课程研发及师资培训体系研究。研究方向涉及：学习心理机制的把握、学习兴趣和动机的激发及系统化、标准化师训系统的建立等。\", \"highlights\": [\"高冷鲜师\", \"理性思辨者\", \"幕后英雄\"]}",
              "user_id": 23,
              "meta_id": 18
            },
            {
              "meta_key": "avatar",
              "meta_value": "1",
              "user_id": 23,
              "meta_id": 24
            }
          ]
        },
        "status": "auto-draft",
        "type": "post_format",
        "title": "孩子，把你的手给我",
        "name": "",
        "content": "海姆·G·吉诺特，心理学博士、临床心理家、儿童心理学家、儿科医生；纽约大学研究生院兼职心理教授、艾德尔菲大学博士后指导教授。 吉诺特博士的一生并不长，他将其短短的一生致力于儿童心理的研究以及对父母和教师的教育。他依靠他的职明才智做了很多创造性的工作，取得了巨大的成就。他在他的书中、演讲中、专栏中宣传的如何跟孩子沟通的创新思想不仅在美国，甚至在全世界都获得巨大反响。",
        "sort": 0,
        "excerpt": null,
        "date": 1510231493945,
        "modified": 1510231493945,
        "parent": 0,
        "meta": {
          "_thumbnail_id": 2,
          "_liked": [
            {
              "id": "60",
              "ip": "3027364236"
            },
            {
              "id": "59",
              "ip": "1780837801"
            },
            {
              "id": "66",
              "ip": "3745551592"
            },
            {
              "id": "89",
              "ip": "1918067752"
            },
            {
              "id": "191",
              "ip": "3071181971"
            },
            {
              "id": "197",
              "ip": "1903443830"
            },
            {
              "id": "55",
              "ip": "613764122"
            }
          ],
          "_loved": [
            {
              "id": "60",
              "ip": "3027364236"
            },
            {
              "id": "59",
              "ip": "1780837801"
            },
            {
              "id": "66",
              "ip": "3745551592"
            },
            {
              "id": "89",
              "ip": "1918067752"
            },
            {
              "id": "191",
              "ip": "3071181971"
            },
            {
              "id": "197",
              "ip": "1903443830"
            },
            {
              "id": "55",
              "ip": "613764122"
            }
          ]
        },
        "items": [
          {
            "id": "101",
            "status": "approved"
          },
          {
            "id": "3",
            "status": "approved"
          },
          {
            "id": "5",
            "status": "approved"
          },
          {
            "id": "7",
            "status": "approved"
          },
          {
            "id": "9",
            "status": "approved"
          },
          {
            "id": "11",
            "status": "approved"
          },
          {
            "id": "13",
            "status": "approved"
          },
          {
            "id": "15",
            "status": "approved"
          },
          {
            "id": "97",
            "status": "approved"
          },
          {
            "id": "99",
            "status": "approved"
          },
          {
            "id": "101",
            "status": "approved"
          },
          {
            "id": "103",
            "status": "approved"
          },
          {
            "id": "105",
            "status": "approved"
          }
        ],
        "url": "",
        "like_count": 7,
        "replies_count": 4,
        "featured_image": "https://media.alearning.com.cn/upload_44e37e7b8e3e96b0237b9dbd1d5c9bea.jpg"
      },
      {
        "id": 17,
        "author": {
          "id": 24,
          "login": "yanfeng",
          "nicename": "毕艳锋",
          "email": "caixie",
          "status": 1,
          "metas": [
            {
              "meta_key": "picker_S11SeYT2W_capabilities",
              "meta_value": "{\"role\": \"author\", \"type\": \"team\"}",
              "user_id": 24,
              "meta_id": 19
            },
            {
              "meta_key": "resume",
              "meta_value": "{\"summary\": \"test\"}",
              "user_id": 24,
              "meta_id": 20
            },
            {
              "meta_key": "avatar",
              "meta_value": "2",
              "user_id": 24,
              "meta_id": 25
            }
          ]
        },
        "status": "auto-draft",
        "type": "post_format",
        "title": "好妈妈胜过好老师",
        "name": "",
        "content": "尹建莉，教育专家，从教多年，她的《好妈妈胜过好老师》紧贴当下生活，讲了许多教育故事，它让人看到，许多人们习以为常的教育行为，原来潜伏着错误；许多被人们忽略的小事，正是教育中最重要的良机。它让家长反思、醒悟，使家长对教育子女茅塞顿开。尹建莉的女儿品学兼优，曾跳级两次，16岁参加高考，取得了超过当年清华录取线22分的优异成绩。每个孩子的优秀都是有源头的。从书中可以看到，她对女儿何等用心。",
        "sort": 0,
        "excerpt": null,
        "date": 1510231888658,
        "modified": 1510231888658,
        "parent": 0,
        "meta": {
          "_thumbnail_id": 18,
          "_liked": [
            {
              "id": "57",
              "ip": "3071155473"
            },
            {
              "id": "89",
              "ip": "1918067752"
            },
            {
              "id": "59",
              "ip": "1971852153"
            },
            {
              "id": "55",
              "ip": "613764122"
            }
          ]
        },
        "items": [
          {
            "id": "95",
            "status": "approved"
          },
          {
            "id": "93",
            "status": "approved"
          },
          {
            "id": "90",
            "status": "approved"
          },
          {
            "id": "88",
            "status": "approved"
          },
          {
            "id": "86",
            "status": "approved"
          },
          {
            "id": "84",
            "status": "approved"
          },
          {
            "id": "82",
            "status": "approved"
          },
          {
            "id": "80",
            "status": "approved"
          },
          {
            "id": "77",
            "status": "approved"
          },
          {
            "id": "31",
            "status": "approved"
          },
          {
            "id": "29",
            "status": "approved"
          },
          {
            "id": "27",
            "status": "approved"
          },
          {
            "id": "25",
            "status": "approved"
          },
          {
            "id": "23",
            "status": "approved"
          },
          {
            "id": "21",
            "status": "approved"
          },
          {
            "id": "19",
            "status": "approved"
          }
        ],
        "url": "",
        "like_count": 4,
        "replies_count": 4,
        "featured_image": "https://media.alearning.com.cn/upload_66c9fbc2b766922a30bd3f9623176082.jpg"
      },
      {
        "id": 33,
        "author": {
          "id": 23,
          "login": "yeqing",
          "nicename": "叶青",
          "email": "yeqig@zhiyou.com",
          "status": 1,
          "metas": [
            {
              "meta_key": "picker_S11SeYT2W_capabilities",
              "meta_value": "{\"role\": \"author\", \"type\": \"team\"}",
              "user_id": 23,
              "meta_id": 17
            },
            {
              "meta_key": "resume",
              "meta_value": "{\"summary\": \"湖南师范大学学前教育专业，英国诺森比亚大学应用语言专业，国家二级心理咨询师。曾任上海昂立国际教育研发总监，领导建立了昂立国际教育3-15岁英语的课程体系并完成了相应教材的研发。17年专注幼少儿培训课程研发及师资培训体系研究。研究方向涉及：学习心理机制的把握、学习兴趣和动机的激发及系统化、标准化师训系统的建立等。\", \"highlights\": [\"高冷鲜师\", \"理性思辨者\", \"幕后英雄\"]}",
              "user_id": 23,
              "meta_id": 18
            },
            {
              "meta_key": "avatar",
              "meta_value": "1",
              "user_id": 23,
              "meta_id": 24
            }
          ]
        },
        "status": "auto-draft",
        "type": "post_format",
        "title": "我祝你经历不公、遭遇背叛，感受孤独",
        "name": "",
        "content": "2005年9月，由布什总统提名，参议院批准通过，罗伯茨就任美国联邦最高法院第17任首席大法官。他也是美国两个世纪以来最年轻的首席大法官。",
        "sort": 0,
        "excerpt": null,
        "date": 1510234375003,
        "modified": 1510234375003,
        "parent": 0,
        "meta": {
          "_thumbnail_id": 36,
          "_liked": [
            {
              "id": "77",
              "ip": "1912032036"
            },
            {
              "id": "89",
              "ip": "1918067752"
            },
            {
              "id": "59",
              "ip": "3748172050"
            },
            {
              "id": "410",
              "ip": "3074406466"
            }
          ]
        },
        "items": [
          {
            "id": "34",
            "status": "approved"
          }
        ],
        "url": "",
        "like_count": 4,
        "replies_count": 3,
        "featured_image": "https://media.alearning.com.cn/upload_61e4702e9e3cbda50164d34a5e191559.jpg"
      },
      {
        "id": 37,
        "author": {
          "id": 25,
          "login": "lixiao",
          "nicename": "李潇",
          "email": "caixie@caxie.top",
          "status": 1,
          "metas": [
            {
              "meta_key": "picker_S11SeYT2W_capabilities",
              "meta_value": "{\"role\": \"subscriber\", \"type\": \"team\"}",
              "user_id": 25,
              "meta_id": 21
            },
            {
              "meta_key": "avatar",
              "meta_value": "3",
              "user_id": 25,
              "meta_id": 26
            }
          ]
        },
        "status": "auto-draft",
        "type": "post_format",
        "title": "忍不住吼孩子",
        "name": "",
        "content": "父母的吼叫有时候会成为孩子一生的阴影，很多研究表明，长期对孩子发脾气、吼叫，不仅会造成亲子关系的疏离，也会让孩子在成长过程中形成自我否定的消极心理，严重的还会影响他们与别人建立亲密关系的能力。\n然而，这些道理很多人懂，做到却好难好难。",
        "sort": 0,
        "excerpt": null,
        "date": 1513763485189,
        "modified": 1513763485189,
        "parent": 0,
        "meta": {
          "_thumbnail_id": 40,
          "_liked": [
            {
              "id": "56",
              "ip": "2032390271"
            },
            {
              "id": "59",
              "ip": "987218890"
            },
            {
              "id": "89",
              "ip": "1918067752"
            },
            {
              "id": "191",
              "ip": "3071181971"
            },
            {
              "id": "55",
              "ip": "613764122"
            }
          ]
        },
        "items": [
          {
            "id": "38",
            "status": "approved"
          }
        ],
        "url": "",
        "like_count": 5,
        "replies_count": 1,
        "featured_image": "https://media.alearning.com.cn/upload_65e484814b5c464b788fbc44f0d70434.jpg"
      },
      {
        "id": 41,
        "author": {
          "id": 24,
          "login": "yanfeng",
          "nicename": "毕艳锋",
          "email": "caixie",
          "status": 1,
          "metas": [
            {
              "meta_key": "picker_S11SeYT2W_capabilities",
              "meta_value": "{\"role\": \"author\", \"type\": \"team\"}",
              "user_id": 24,
              "meta_id": 19
            },
            {
              "meta_key": "resume",
              "meta_value": "{\"summary\": \"test\"}",
              "user_id": 24,
              "meta_id": 20
            },
            {
              "meta_key": "avatar",
              "meta_value": "2",
              "user_id": 24,
              "meta_id": 25
            }
          ]
        },
        "status": "auto-draft",
        "type": "post_format",
        "title": "有话好好说",
        "name": "",
        "content": "语言是带情绪的，你所说的每一个字串联起来，有可能给人带去温暖，但也可能带来伤害。“打击式教育”出来的孩子不能坚持自我，很容易生气，不懂得尊重别人的感受，行为粗鲁没有礼貌……。\n",
        "sort": 0,
        "excerpt": null,
        "date": 1510232822668,
        "modified": 1510232822668,
        "parent": 0,
        "meta": {
          "_thumbnail_id": 43
        },
        "url": "",
        "like_count": 0,
        "replies_count": 0,
        "featured_image": "https://media.alearning.com.cn/upload_a3532aacb6e0409d8e052ce70c81dbdb.jpg"
      },
      {
        "id": 45,
        "author": {
          "id": 25,
          "login": "lixiao",
          "nicename": "李潇",
          "email": "caixie@caxie.top",
          "status": 1,
          "metas": [
            {
              "meta_key": "picker_S11SeYT2W_capabilities",
              "meta_value": "{\"role\": \"subscriber\", \"type\": \"team\"}",
              "user_id": 25,
              "meta_id": 21
            },
            {
              "meta_key": "avatar",
              "meta_value": "3",
              "user_id": 25,
              "meta_id": 26
            }
          ]
        },
        "status": "publish",
        "type": "post_format",
        "title": "这个世界没有笨小孩",
        "name": "",
        "content": "绝大部分人智商差异不大，只是特长不同而已。有的孩子虽然读书不行，但也许在其他方面有很大的潜力；有的孩子刚开始上小学时成绩不是特别好，但是后劲足，潜力大。\n",
        "sort": 0,
        "excerpt": null,
        "date": 1513763509063,
        "modified": 1514881347298,
        "parent": 0,
        "meta": {
          "_thumbnail_id": 48,
          "_liked": [
            {
              "id": "55",
              "ip": "1786330621"
            },
            {
              "id": "89",
              "ip": "1918067752"
            },
            {
              "id": "197",
              "ip": "1903443830"
            }
          ]
        },
        "items": [
          {
            "id": "46",
            "status": "approved"
          }
        ],
        "url": "",
        "like_count": 3,
        "replies_count": 2,
        "featured_image": "https://media.alearning.com.cn/upload_7ab1f8202bc5b4b1b1670462df4847d5.jpg"
      },
      {
        "id": 70,
        "author": {
          "id": 23,
          "login": "yeqing",
          "nicename": "叶青",
          "email": "yeqig@zhiyou.com",
          "status": 1,
          "metas": [
            {
              "meta_key": "picker_S11SeYT2W_capabilities",
              "meta_value": "{\"role\": \"author\", \"type\": \"team\"}",
              "user_id": 23,
              "meta_id": 17
            },
            {
              "meta_key": "resume",
              "meta_value": "{\"summary\": \"湖南师范大学学前教育专业，英国诺森比亚大学应用语言专业，国家二级心理咨询师。曾任上海昂立国际教育研发总监，领导建立了昂立国际教育3-15岁英语的课程体系并完成了相应教材的研发。17年专注幼少儿培训课程研发及师资培训体系研究。研究方向涉及：学习心理机制的把握、学习兴趣和动机的激发及系统化、标准化师训系统的建立等。\", \"highlights\": [\"高冷鲜师\", \"理性思辨者\", \"幕后英雄\"]}",
              "user_id": 23,
              "meta_id": 18
            },
            {
              "meta_key": "avatar",
              "meta_value": "1",
              "user_id": 23,
              "meta_id": 24
            }
          ]
        },
        "status": "auto-draft",
        "type": "post_format",
        "title": "问题1 做作业",
        "name": "",
        "content": "小朋友在家做练习没有在学校认真，经常做一半就喊累要休息，不能一口气完成怎么办？",
        "sort": 0,
        "excerpt": null,
        "date": 1510234674001,
        "modified": 1510234674001,
        "parent": 0,
        "meta": {},
        "items": [
          {
            "id": "71",
            "status": "approved"
          }
        ],
        "url": "",
        "like_count": 0,
        "replies_count": 0
      }
    ]
  }
}
